[
    {
        "name": "070400_0051",
        "dialog_id": "070400_0051",
        "question_id": 2,
        "question_en_description": "Agent listens actively and asks relevant questions",
        "true_label": "PASS",
        "predicted_label": "PASS",
        "PASS_confidence": "0.961393494431",
        "NOPASS_confidence": "0.0386065055695"
    },
    {
        "name": "070400_0051",
        "dialog_id": "070400_0051",
        "question_id": 3,
        "question_en_description": "Agent shows the information in a clear, comprehensive and essential way",
        "true_label": "PASS",
        "predicted_label": "PASS",
        "PASS_confidence": "0.984959068957",
        "NOPASS_confidence": "0.0150409310427"
    },
    {
        "name": "070400_0051",
        "dialog_id": "070400_0051",
        "question_id": 10,
        "question_en_description": "Agent is able to adapt to the style of client's communication always maintaining professionalism",
        "true_label": "PASS",
        "predicted_label": "PASS",
        "PASS_confidence": "0.997857615987",
        "NOPASS_confidence": "0.00214238401301"
    }
]