[
    {
        "name": "070400_0055",
        "dialog_id": "070400_0055",
        "question_id": 2,
        "question_en_description": "Agent listens actively and asks relevant questions",
        "true_label": "PASS",
        "predicted_label": "PASS",
        "PASS_confidence": "0.97961310167",
        "NOPASS_confidence": "0.0203868983298"
    },
    {
        "name": "070400_0055",
        "dialog_id": "070400_0055",
        "question_id": 3,
        "question_en_description": "Agent shows the information in a clear, comprehensive and essential way",
        "true_label": "NOPASS",
        "predicted_label": "NOPASS",
        "PASS_confidence": "0.615829995497",
        "NOPASS_confidence": "0.384170004503"
    },
    {
        "name": "070400_0055",
        "dialog_id": "070400_0055",
        "question_id": 10,
        "question_en_description": "Agent is able to adapt to the style of client's communication always maintaining professionalism",
        "true_label": "PASS",
        "predicted_label": "PASS",
        "PASS_confidence": "0.971696441922",
        "NOPASS_confidence": "0.0283035580777"
    }
]