[
    {
        "name": "070500_0003",
        "dialog_id": "070500_0003",
        "question_id": 2,
        "question_en_description": "Agent listens actively and asks relevant questions",
        "true_label": "PASS",
        "predicted_label": "PASS",
        "PASS_confidence": "0.998112612003",
        "NOPASS_confidence": "0.00188738799722"
    },
    {
        "name": "070500_0003",
        "dialog_id": "070500_0003",
        "question_id": 3,
        "question_en_description": "Agent shows the information in a clear, comprehensive and essential way",
        "true_label": "PASS",
        "predicted_label": "PASS",
        "PASS_confidence": "0.954015122851",
        "NOPASS_confidence": "0.0459848771494"
    },
    {
        "name": "070500_0003",
        "dialog_id": "070500_0003",
        "question_id": 10,
        "question_en_description": "Agent is able to adapt to the style of client's communication always maintaining professionalism",
        "true_label": "PASS",
        "predicted_label": "PASS",
        "PASS_confidence": "0.995967193699",
        "NOPASS_confidence": "0.00403280630086"
    }
]