[
    {
        "name": "070528_0008",
        "dialog_id": "070528_0008",
        "question_id": 2,
        "question_en_description": "Agent listens actively and asks relevant questions",
        "true_label": "PASS",
        "predicted_label": "PASS",
        "PASS_confidence": "0.999995623551",
        "NOPASS_confidence": "4.37644938224e-06"
    },
    {
        "name": "070528_0008",
        "dialog_id": "070528_0008",
        "question_id": 3,
        "question_en_description": "Agent shows the information in a clear, comprehensive and essential way",
        "true_label": "PASS",
        "predicted_label": "PASS",
        "PASS_confidence": "0.957554110504",
        "NOPASS_confidence": "0.0424458894959"
    },
    {
        "name": "070528_0008",
        "dialog_id": "070528_0008",
        "question_id": 10,
        "question_en_description": "Agent is able to adapt to the style of client's communication always maintaining professionalism",
        "true_label": "PASS",
        "predicted_label": "PASS",
        "PASS_confidence": "0.997424185051",
        "NOPASS_confidence": "0.00257581494906"
    }
]