[
    {
        "name": "070531_0005",
        "dialog_id": "070531_0005",
        "question_id": 2,
        "question_en_description": "Agent listens actively and asks relevant questions",
        "true_label": "PASS",
        "predicted_label": "PASS",
        "PASS_confidence": "0.97316320249",
        "NOPASS_confidence": "0.0268367975099"
    },
    {
        "name": "070531_0005",
        "dialog_id": "070531_0005",
        "question_id": 3,
        "question_en_description": "Agent shows the information in a clear, comprehensive and essential way",
        "true_label": "PASS",
        "predicted_label": "PASS",
        "PASS_confidence": "0.982785809835",
        "NOPASS_confidence": "0.0172141901653"
    },
    {
        "name": "070531_0005",
        "dialog_id": "070531_0005",
        "question_id": 10,
        "question_en_description": "Agent is able to adapt to the style of client's communication always maintaining professionalism",
        "true_label": "PASS",
        "predicted_label": "PASS",
        "PASS_confidence": "0.985624297165",
        "NOPASS_confidence": "0.0143757028353"
    }
]