[
    {
        "name": "070528_0011",
        "dialog_id": "070528_0011",
        "question_id": 2,
        "question_en_description": "Agent listens actively and asks relevant questions",
        "true_label": "PASS",
        "predicted_label": "PASS",
        "PASS_confidence": "0.981134591485",
        "NOPASS_confidence": "0.0188654085148"
    },
    {
        "name": "070528_0011",
        "dialog_id": "070528_0011",
        "question_id": 3,
        "question_en_description": "Agent shows the information in a clear, comprehensive and essential way",
        "true_label": "PASS",
        "predicted_label": "PASS",
        "PASS_confidence": "0.967557736812",
        "NOPASS_confidence": "0.0324422631878"
    },
    {
        "name": "070528_0011",
        "dialog_id": "070528_0011",
        "question_id": 10,
        "question_en_description": "Agent is able to adapt to the style of client's communication always maintaining professionalism",
        "true_label": "PASS",
        "predicted_label": "PASS",
        "PASS_confidence": "0.999920006744",
        "NOPASS_confidence": "7.99932560315e-05"
    }
]