[
    {
        "name": "070528_0014",
        "dialog_id": "070528_0014",
        "question_id": 2,
        "question_en_description": "Agent listens actively and asks relevant questions",
        "true_label": "PASS",
        "predicted_label": "PASS",
        "PASS_confidence": "0.995880341498",
        "NOPASS_confidence": "0.00411965850154"
    },
    {
        "name": "070528_0014",
        "dialog_id": "070528_0014",
        "question_id": 3,
        "question_en_description": "Agent shows the information in a clear, comprehensive and essential way",
        "true_label": "PASS",
        "predicted_label": "PASS",
        "PASS_confidence": "0.963218792097",
        "NOPASS_confidence": "0.0367812079029"
    },
    {
        "name": "070528_0014",
        "dialog_id": "070528_0014",
        "question_id": 10,
        "question_en_description": "Agent is able to adapt to the style of client's communication always maintaining professionalism",
        "true_label": "PASS",
        "predicted_label": "PASS",
        "PASS_confidence": "0.989284293168",
        "NOPASS_confidence": "0.0107157068315"
    }
]