[
    {
        "name": "070523_0011",
        "dialog_id": "070523_0011",
        "question_id": 2,
        "question_en_description": "Agent listens actively and asks relevant questions",
        "true_label": "PASS",
        "predicted_label": "PASS",
        "PASS_confidence": "0.99203185984",
        "NOPASS_confidence": "0.00796814016037"
    },
    {
        "name": "070523_0011",
        "dialog_id": "070523_0011",
        "question_id": 3,
        "question_en_description": "Agent shows the information in a clear, comprehensive and essential way",
        "true_label": "NOPASS",
        "predicted_label": "PASS",
        "PASS_confidence": "0.895094305164",
        "NOPASS_confidence": "0.104905694836"
    },
    {
        "name": "070523_0011",
        "dialog_id": "070523_0011",
        "question_id": 10,
        "question_en_description": "Agent is able to adapt to the style of client's communication always maintaining professionalism",
        "true_label": "PASS",
        "predicted_label": "PASS",
        "PASS_confidence": "0.999597521995",
        "NOPASS_confidence": "0.000402478005181"
    }
]