[
    {
        "name": "070524_0028",
        "dialog_id": "070524_0028",
        "question_id": 2,
        "question_en_description": "Agent listens actively and asks relevant questions",
        "true_label": "PASS",
        "predicted_label": "PASS",
        "PASS_confidence": "0.985614307589",
        "NOPASS_confidence": "0.0143856924112"
    },
    {
        "name": "070524_0028",
        "dialog_id": "070524_0028",
        "question_id": 3,
        "question_en_description": "Agent shows the information in a clear, comprehensive and essential way",
        "true_label": "PASS",
        "predicted_label": "PASS",
        "PASS_confidence": "0.96267357484",
        "NOPASS_confidence": "0.0373264251602"
    },
    {
        "name": "070524_0028",
        "dialog_id": "070524_0028",
        "question_id": 10,
        "question_en_description": "Agent is able to adapt to the style of client's communication always maintaining professionalism",
        "true_label": "PASS",
        "predicted_label": "PASS",
        "PASS_confidence": "0.974241357108",
        "NOPASS_confidence": "0.0257586428923"
    }
]