[
    {
        "name": "070530_0003",
        "dialog_id": "070530_0003",
        "question_id": 2,
        "question_en_description": "Agent listens actively and asks relevant questions",
        "true_label": "PASS",
        "predicted_label": "PASS",
        "PASS_confidence": "0.92904022881",
        "NOPASS_confidence": "0.0709597711899"
    },
    {
        "name": "070530_0003",
        "dialog_id": "070530_0003",
        "question_id": 3,
        "question_en_description": "Agent shows the information in a clear, comprehensive and essential way",
        "true_label": "PASS",
        "predicted_label": "PASS",
        "PASS_confidence": "0.862360059619",
        "NOPASS_confidence": "0.137639940381"
    },
    {
        "name": "070530_0003",
        "dialog_id": "070530_0003",
        "question_id": 10,
        "question_en_description": "Agent is able to adapt to the style of client's communication always maintaining professionalism",
        "true_label": "PASS",
        "predicted_label": "PASS",
        "PASS_confidence": "0.927533246109",
        "NOPASS_confidence": "0.0724667538907"
    }
]