[
    {
        "name": "070606_0004",
        "dialog_id": "070606_0004",
        "question_id": 2,
        "question_en_description": "Agent listens actively and asks relevant questions",
        "true_label": "PASS",
        "predicted_label": "PASS",
        "PASS_confidence": "0.977230009369",
        "NOPASS_confidence": "0.0227699906306"
    },
    {
        "name": "070606_0004",
        "dialog_id": "070606_0004",
        "question_id": 3,
        "question_en_description": "Agent shows the information in a clear, comprehensive and essential way",
        "true_label": "PASS",
        "predicted_label": "PASS",
        "PASS_confidence": "0.987261918474",
        "NOPASS_confidence": "0.0127380815261"
    },
    {
        "name": "070606_0004",
        "dialog_id": "070606_0004",
        "question_id": 10,
        "question_en_description": "Agent is able to adapt to the style of client's communication always maintaining professionalism",
        "true_label": "PASS",
        "predicted_label": "PASS",
        "PASS_confidence": "0.996422072231",
        "NOPASS_confidence": "0.00357792776942"
    }
]