[
    {
        "name": "070604_0002",
        "dialog_id": "070604_0002",
        "question_id": 2,
        "question_en_description": "Agent listens actively and asks relevant questions",
        "true_label": "PASS",
        "predicted_label": "PASS",
        "PASS_confidence": "0.992215981813",
        "NOPASS_confidence": "0.00778401818723"
    },
    {
        "name": "070604_0002",
        "dialog_id": "070604_0002",
        "question_id": 3,
        "question_en_description": "Agent shows the information in a clear, comprehensive and essential way",
        "true_label": "PASS",
        "predicted_label": "PASS",
        "PASS_confidence": "0.966988333626",
        "NOPASS_confidence": "0.0330116663742"
    },
    {
        "name": "070604_0002",
        "dialog_id": "070604_0002",
        "question_id": 10,
        "question_en_description": "Agent is able to adapt to the style of client's communication always maintaining professionalism",
        "true_label": "PASS",
        "predicted_label": "PASS",
        "PASS_confidence": "0.986539104181",
        "NOPASS_confidence": "0.0134608958195"
    }
]