[
    {
        "name": "070606_0001",
        "dialog_id": "070606_0001",
        "question_id": 2,
        "question_en_description": "Agent listens actively and asks relevant questions",
        "true_label": "PASS",
        "predicted_label": "PASS",
        "PASS_confidence": "0.982766458247",
        "NOPASS_confidence": "0.017233541753"
    },
    {
        "name": "070606_0001",
        "dialog_id": "070606_0001",
        "question_id": 3,
        "question_en_description": "Agent shows the information in a clear, comprehensive and essential way",
        "true_label": "PASS",
        "predicted_label": "PASS",
        "PASS_confidence": "0.987933213001",
        "NOPASS_confidence": "0.0120667869988"
    },
    {
        "name": "070606_0001",
        "dialog_id": "070606_0001",
        "question_id": 10,
        "question_en_description": "Agent is able to adapt to the style of client's communication always maintaining professionalism",
        "true_label": "PASS",
        "predicted_label": "PASS",
        "PASS_confidence": "0.968842937578",
        "NOPASS_confidence": "0.0311570624219"
    }
]