[
    {
        "name": "070627_0005",
        "dialog_id": "070627_0005",
        "question_id": 2,
        "question_en_description": "Agent listens actively and asks relevant questions",
        "true_label": "PASS",
        "predicted_label": "PASS",
        "PASS_confidence": "0.976475707089",
        "NOPASS_confidence": "0.0235242929113"
    },
    {
        "name": "070627_0005",
        "dialog_id": "070627_0005",
        "question_id": 3,
        "question_en_description": "Agent shows the information in a clear, comprehensive and essential way",
        "true_label": "PASS",
        "predicted_label": "PASS",
        "PASS_confidence": "0.980019290723",
        "NOPASS_confidence": "0.0199807092772"
    },
    {
        "name": "070627_0005",
        "dialog_id": "070627_0005",
        "question_id": 10,
        "question_en_description": "Agent is able to adapt to the style of client's communication always maintaining professionalism",
        "true_label": "PASS",
        "predicted_label": "PASS",
        "PASS_confidence": "0.977081060833",
        "NOPASS_confidence": "0.0229189391673"
    }
]