[
    {
        "name": "070606_0002",
        "dialog_id": "070606_0002",
        "question_id": 2,
        "question_en_description": "Agent listens actively and asks relevant questions",
        "true_label": "PASS",
        "predicted_label": "PASS",
        "PASS_confidence": "0.962590567489",
        "NOPASS_confidence": "0.0374094325107"
    },
    {
        "name": "070606_0002",
        "dialog_id": "070606_0002",
        "question_id": 3,
        "question_en_description": "Agent shows the information in a clear, comprehensive and essential way",
        "true_label": "PASS",
        "predicted_label": "PASS",
        "PASS_confidence": "0.991068069133",
        "NOPASS_confidence": "0.00893193086676"
    },
    {
        "name": "070606_0002",
        "dialog_id": "070606_0002",
        "question_id": 10,
        "question_en_description": "Agent is able to adapt to the style of client's communication always maintaining professionalism",
        "true_label": "PASS",
        "predicted_label": "PASS",
        "PASS_confidence": "0.96695841107",
        "NOPASS_confidence": "0.0330415889303"
    }
]