[
    {
        "name": "070607_0002",
        "dialog_id": "070607_0002",
        "question_id": 2,
        "question_en_description": "Agent listens actively and asks relevant questions",
        "true_label": "PASS",
        "predicted_label": "PASS",
        "PASS_confidence": "0.952544968756",
        "NOPASS_confidence": "0.0474550312441"
    },
    {
        "name": "070607_0002",
        "dialog_id": "070607_0002",
        "question_id": 3,
        "question_en_description": "Agent shows the information in a clear, comprehensive and essential way",
        "true_label": "PASS",
        "predicted_label": "PASS",
        "PASS_confidence": "0.950545197372",
        "NOPASS_confidence": "0.049454802628"
    },
    {
        "name": "070607_0002",
        "dialog_id": "070607_0002",
        "question_id": 10,
        "question_en_description": "Agent is able to adapt to the style of client's communication always maintaining professionalism",
        "true_label": "PASS",
        "predicted_label": "PASS",
        "PASS_confidence": "0.999946084438",
        "NOPASS_confidence": "5.39155620625e-05"
    }
]