[
    {
        "name": "070621_0003",
        "dialog_id": "070621_0003",
        "question_id": 2,
        "question_en_description": "Agent listens actively and asks relevant questions",
        "true_label": "PASS",
        "predicted_label": "PASS",
        "PASS_confidence": "0.990796529092",
        "NOPASS_confidence": "0.00920347090823"
    },
    {
        "name": "070621_0003",
        "dialog_id": "070621_0003",
        "question_id": 3,
        "question_en_description": "Agent shows the information in a clear, comprehensive and essential way",
        "true_label": "PASS",
        "predicted_label": "PASS",
        "PASS_confidence": "0.991604528756",
        "NOPASS_confidence": "0.00839547124412"
    },
    {
        "name": "070621_0003",
        "dialog_id": "070621_0003",
        "question_id": 10,
        "question_en_description": "Agent is able to adapt to the style of client's communication always maintaining professionalism",
        "true_label": "PASS",
        "predicted_label": "PASS",
        "PASS_confidence": "0.971535991552",
        "NOPASS_confidence": "0.0284640084478"
    }
]