[
    {
        "name": "070716_0010",
        "dialog_id": "070716_0010",
        "question_id": 2,
        "question_en_description": "Agent listens actively and asks relevant questions",
        "true_label": "NOPASS",
        "predicted_label": "NOPASS",
        "PASS_confidence": "0.914359419767",
        "NOPASS_confidence": "0.085640580233"
    },
    {
        "name": "070716_0010",
        "dialog_id": "070716_0010",
        "question_id": 3,
        "question_en_description": "Agent shows the information in a clear, comprehensive and essential way",
        "true_label": "PASS",
        "predicted_label": "PASS",
        "PASS_confidence": "0.988389287123",
        "NOPASS_confidence": "0.011610712877"
    },
    {
        "name": "070716_0010",
        "dialog_id": "070716_0010",
        "question_id": 10,
        "question_en_description": "Agent is able to adapt to the style of client's communication always maintaining professionalism",
        "true_label": "PASS",
        "predicted_label": "PASS",
        "PASS_confidence": "0.999994518409",
        "NOPASS_confidence": "5.48159074764e-06"
    }
]