[
    {
        "name": "070727_0001",
        "dialog_id": "070727_0001",
        "question_id": 2,
        "question_en_description": "Agent listens actively and asks relevant questions",
        "true_label": "NOPASS",
        "predicted_label": "NOPASS",
        "PASS_confidence": "0.651991507925",
        "NOPASS_confidence": "0.348008492075"
    },
    {
        "name": "070727_0001",
        "dialog_id": "070727_0001",
        "question_id": 3,
        "question_en_description": "Agent shows the information in a clear, comprehensive and essential way",
        "true_label": "NOPASS",
        "predicted_label": "PASS",
        "PASS_confidence": "0.895537836817",
        "NOPASS_confidence": "0.104462163183"
    },
    {
        "name": "070727_0001",
        "dialog_id": "070727_0001",
        "question_id": 10,
        "question_en_description": "Agent is able to adapt to the style of client's communication always maintaining professionalism",
        "true_label": "NOPASS",
        "predicted_label": "PASS",
        "PASS_confidence": "0.970075599285",
        "NOPASS_confidence": "0.0299244007153"
    }
]