[
    {
        "name": "070717_0010",
        "dialog_id": "070717_0010",
        "question_id": 2,
        "question_en_description": "Agent listens actively and asks relevant questions",
        "true_label": "PASS",
        "predicted_label": "PASS",
        "PASS_confidence": "0.983536257233",
        "NOPASS_confidence": "0.0164637427667"
    },
    {
        "name": "070717_0010",
        "dialog_id": "070717_0010",
        "question_id": 3,
        "question_en_description": "Agent shows the information in a clear, comprehensive and essential way",
        "true_label": "PASS",
        "predicted_label": "PASS",
        "PASS_confidence": "0.940799968961",
        "NOPASS_confidence": "0.0592000310388"
    },
    {
        "name": "070717_0010",
        "dialog_id": "070717_0010",
        "question_id": 10,
        "question_en_description": "Agent is able to adapt to the style of client's communication always maintaining professionalism",
        "true_label": "PASS",
        "predicted_label": "PASS",
        "PASS_confidence": "0.964498761691",
        "NOPASS_confidence": "0.0355012383092"
    }
]