[
    {
        "name": "070705_0001",
        "dialog_id": "070705_0001",
        "question_id": 2,
        "question_en_description": "Agent listens actively and asks relevant questions",
        "true_label": "PASS",
        "predicted_label": "PASS",
        "PASS_confidence": "0.979629063421",
        "NOPASS_confidence": "0.0203709365795"
    },
    {
        "name": "070705_0001",
        "dialog_id": "070705_0001",
        "question_id": 3,
        "question_en_description": "Agent shows the information in a clear, comprehensive and essential way",
        "true_label": "PASS",
        "predicted_label": "PASS",
        "PASS_confidence": "0.969977925181",
        "NOPASS_confidence": "0.0300220748194"
    },
    {
        "name": "070705_0001",
        "dialog_id": "070705_0001",
        "question_id": 10,
        "question_en_description": "Agent is able to adapt to the style of client's communication always maintaining professionalism",
        "true_label": "PASS",
        "predicted_label": "PASS",
        "PASS_confidence": "0.978414431639",
        "NOPASS_confidence": "0.0215855683612"
    }
]