[
    {
        "name": "070723_0008",
        "dialog_id": "070723_0008",
        "question_id": 2,
        "question_en_description": "Agent listens actively and asks relevant questions",
        "true_label": "PASS",
        "predicted_label": "PASS",
        "PASS_confidence": "0.989803642502",
        "NOPASS_confidence": "0.0101963574983"
    },
    {
        "name": "070723_0008",
        "dialog_id": "070723_0008",
        "question_id": 3,
        "question_en_description": "Agent shows the information in a clear, comprehensive and essential way",
        "true_label": "PASS",
        "predicted_label": "PASS",
        "PASS_confidence": "0.995047926194",
        "NOPASS_confidence": "0.00495207380588"
    },
    {
        "name": "070723_0008",
        "dialog_id": "070723_0008",
        "question_id": 10,
        "question_en_description": "Agent is able to adapt to the style of client's communication always maintaining professionalism",
        "true_label": "PASS",
        "predicted_label": "PASS",
        "PASS_confidence": "0.975642703665",
        "NOPASS_confidence": "0.0243572963355"
    }
]