[
    {
        "name": "070806_0008",
        "dialog_id": "070806_0008",
        "question_id": 2,
        "question_en_description": "Agent listens actively and asks relevant questions",
        "true_label": "PASS",
        "predicted_label": "PASS",
        "PASS_confidence": "0.982653242699",
        "NOPASS_confidence": "0.0173467573011"
    },
    {
        "name": "070806_0008",
        "dialog_id": "070806_0008",
        "question_id": 3,
        "question_en_description": "Agent shows the information in a clear, comprehensive and essential way",
        "true_label": "PASS",
        "predicted_label": "PASS",
        "PASS_confidence": "0.980197820567",
        "NOPASS_confidence": "0.0198021794332"
    },
    {
        "name": "070806_0008",
        "dialog_id": "070806_0008",
        "question_id": 10,
        "question_en_description": "Agent is able to adapt to the style of client's communication always maintaining professionalism",
        "true_label": "PASS",
        "predicted_label": "PASS",
        "PASS_confidence": "0.999990437643",
        "NOPASS_confidence": "9.56235708961e-06"
    }
]