[
    {
        "name": "070913_0003",
        "dialog_id": "070913_0003",
        "question_id": 2,
        "question_en_description": "Agent listens actively and asks relevant questions",
        "true_label": "PASS",
        "predicted_label": "PASS",
        "PASS_confidence": "0.983902998125",
        "NOPASS_confidence": "0.0160970018749"
    },
    {
        "name": "070913_0003",
        "dialog_id": "070913_0003",
        "question_id": 3,
        "question_en_description": "Agent shows the information in a clear, comprehensive and essential way",
        "true_label": "PASS",
        "predicted_label": "PASS",
        "PASS_confidence": "0.977658053531",
        "NOPASS_confidence": "0.0223419464685"
    },
    {
        "name": "070913_0003",
        "dialog_id": "070913_0003",
        "question_id": 10,
        "question_en_description": "Agent is able to adapt to the style of client's communication always maintaining professionalism",
        "true_label": "PASS",
        "predicted_label": "PASS",
        "PASS_confidence": "0.971213811327",
        "NOPASS_confidence": "0.0287861886729"
    }
]