[
    {
        "name": "070924_0002",
        "dialog_id": "070924_0002",
        "question_id": 2,
        "question_en_description": "Agent listens actively and asks relevant questions",
        "true_label": "PASS",
        "predicted_label": "PASS",
        "PASS_confidence": "0.965535247418",
        "NOPASS_confidence": "0.0344647525822"
    },
    {
        "name": "070924_0002",
        "dialog_id": "070924_0002",
        "question_id": 3,
        "question_en_description": "Agent shows the information in a clear, comprehensive and essential way",
        "true_label": "PASS",
        "predicted_label": "PASS",
        "PASS_confidence": "0.963722501359",
        "NOPASS_confidence": "0.0362774986407"
    },
    {
        "name": "070924_0002",
        "dialog_id": "070924_0002",
        "question_id": 10,
        "question_en_description": "Agent is able to adapt to the style of client's communication always maintaining professionalism",
        "true_label": "PASS",
        "predicted_label": "PASS",
        "PASS_confidence": "0.9657195481",
        "NOPASS_confidence": "0.0342804519001"
    }
]