[
    {
        "name": "071019_0002",
        "dialog_id": "071019_0002",
        "question_id": 2,
        "question_en_description": "Agent listens actively and asks relevant questions",
        "true_label": "PASS",
        "predicted_label": "PASS",
        "PASS_confidence": "0.984175967905",
        "NOPASS_confidence": "0.015824032095"
    },
    {
        "name": "071019_0002",
        "dialog_id": "071019_0002",
        "question_id": 3,
        "question_en_description": "Agent shows the information in a clear, comprehensive and essential way",
        "true_label": "PASS",
        "predicted_label": "PASS",
        "PASS_confidence": "0.975854245051",
        "NOPASS_confidence": "0.0241457549492"
    },
    {
        "name": "071019_0002",
        "dialog_id": "071019_0002",
        "question_id": 10,
        "question_en_description": "Agent is able to adapt to the style of client's communication always maintaining professionalism",
        "true_label": "PASS",
        "predicted_label": "PASS",
        "PASS_confidence": "0.969505128984",
        "NOPASS_confidence": "0.030494871016"
    }
]